{
  "annotations": {
    "list": [
      {
        "builtIn": 1,
        "datasource": "-- Grafana --",
        "enable": true,
        "hide": true,
        "iconColor": "rgba(0, 211, 255, 1)",
        "name": "Annotations & Alerts",
        "type": "dashboard"
      }
    ]
  },
  "editable": true,
  "gnetId": null,
  "graphTooltip": 2,
  "id": 1,
  "iteration": 1602065022639,
  "links": [
    {
      "icon": "external link",
      "includeVars": true,
      "keepTime": true,
      "tags": [
        "Customers"
      ],
      "targetBlank": true,
      "type": "dashboards"
    }
  ],
  "panels": [
    {
      "datasource": "Prometheus",
      "fieldConfig": {
        "defaults": {
          "color": {
            "mode": "thresholds"
          },
          "custom": {},
          "mappings": [],
          "max": 100,
          "min": 0,
          "thresholds": {
            "mode": "absolute",
            "steps": [
              {
                "color": "dark-red",
                "value": null
              },
              {
                "color": "dark-green",
                "value": 1
              }
            ]
          }
        },
        "overrides": []
      },
      "gridPos": {
        "h": 5,
        "w": 24,
        "x": 0,
        "y": 0
      },
      "id": 8,
      "options": {
        "orientation": "horizontal",
        "reduceOptions": {
          "calcs": [
            "lastNotNull"
          ],
          "fields": "",
          "values": false
        },
        "showThresholdLabels": false,
        "showThresholdMarkers": false
      },
      "pluginVersion": "7.2.0",
      "targets": [
        {
          "expr": "up{instance=\"localhost:9080\",job=\"spartiate-résilient\"}",
          "instant": false,
          "interval": "",
          "legendFormat": "Spartiate Résilient",
          "refId": "B"
        },
        {
          "expr": "up{instance=\"localhost:9079\",job=\"spartiate\"}",
          "instant": false,
          "legendFormat": "Spartiate non résilient",
          "refId": "A"
        },
        {
          "expr": "up{instance=\"localhost:9081\",job=\"troyen\"}",
          "instant": false,
          "interval": "",
          "legendFormat": "Troyen",
          "refId": "C"
        }
      ],
      "timeFrom": null,
      "timeShift": null,
      "title": "Etat GET CUSTOMERS",
      "type": "gauge"
    },
    {
      "aliasColors": {
        "KO Résilient": "semi-dark-red"
      },
      "bars": false,
      "cacheTimeout": null,
      "dashLength": 10,
      "dashes": false,
      "datasource": "Prometheus",
      "description": "",
      "fieldConfig": {
        "defaults": {
          "custom": {},
          "links": []
        },
        "overrides": []
      },
      "fill": 1,
      "fillGradient": 0,
      "gridPos": {
        "h": 8,
        "w": 9,
        "x": 0,
        "y": 5
      },
      "hiddenSeries": false,
      "id": 12,
      "legend": {
        "avg": false,
        "current": false,
        "max": false,
        "min": false,
        "show": true,
        "total": false,
        "values": false
      },
      "lines": true,
      "linewidth": 5,
      "links": [],
      "nullPointMode": "null",
      "options": {
        "alertThreshold": true
      },
      "percentage": false,
      "pluginVersion": "7.2.0",
      "pointradius": 6,
      "points": false,
      "renderer": "flot",
      "seriesOverrides": [],
      "spaceLength": 10,
      "stack": false,
      "steppedLine": true,
      "targets": [
        {
          "expr": "$OK_R",
          "instant": false,
          "interval": "",
          "legendFormat": "OK Résilient",
          "refId": "A"
        },
        {
          "expr": "",
          "instant": false,
          "interval": "",
          "legendFormat": "KO Résilient",
          "refId": "B"
        }
      ],
      "thresholds": [],
      "timeFrom": null,
      "timeRegions": [],
      "timeShift": null,
      "title": "Nombre d'appels avec résilience CUSTOMERS",
      "tooltip": {
        "shared": true,
        "sort": 0,
        "value_type": "individual"
      },
      "type": "graph",
      "xaxis": {
        "buckets": null,
        "mode": "time",
        "name": null,
        "show": true,
        "values": []
      },
      "yaxes": [
        {
          "format": "short",
          "label": "Total Requête",
          "logBase": 1,
          "max": null,
          "min": null,
          "show": true
        },
        {
          "format": "short",
          "label": "",
          "logBase": 1,
          "max": null,
          "min": null,
          "show": true
        }
      ],
      "yaxis": {
        "align": false,
        "alignLevel": null
      }
    },
    {
      "aliasColors": {
        "KO": "semi-dark-red"
      },
      "bars": false,
      "cacheTimeout": null,
      "dashLength": 10,
      "dashes": false,
      "datasource": "Prometheus",
      "description": "",
      "fieldConfig": {
        "defaults": {
          "custom": {},
          "links": []
        },
        "overrides": []
      },
      "fill": 1,
      "fillGradient": 0,
      "gridPos": {
        "h": 8,
        "w": 9,
        "x": 9,
        "y": 5
      },
      "hiddenSeries": false,
      "id": 13,
      "legend": {
        "avg": false,
        "current": false,
        "max": false,
        "min": false,
        "show": true,
        "total": false,
        "values": false
      },
      "lines": true,
      "linewidth": 3,
      "links": [],
      "nullPointMode": "null",
      "options": {
        "alertThreshold": true
      },
      "percentage": false,
      "pluginVersion": "7.2.0",
      "pointradius": 2,
      "points": false,
      "renderer": "flot",
      "seriesOverrides": [],
      "spaceLength": 10,
      "stack": false,
      "steppedLine": true,
      "targets": [
        {
          "expr": "$OK\n",
          "instant": false,
          "interval": "",
          "intervalFactor": 1,
          "legendFormat": "OK",
          "refId": "A"
        },
        {
          "expr": "$KO\n",
          "interval": "",
          "legendFormat": "KO",
          "refId": "B"
        }
      ],
      "thresholds": [],
      "timeFrom": null,
      "timeRegions": [],
      "timeShift": null,
      "title": "Nombre d'appels sans résilience CUSTOMERS",
      "tooltip": {
        "shared": true,
        "sort": 0,
        "value_type": "individual"
      },
      "type": "graph",
      "xaxis": {
        "buckets": null,
        "mode": "time",
        "name": null,
        "show": true,
        "values": []
      },
      "yaxes": [
        {
          "format": "short",
          "label": "Total Requête",
          "logBase": 1,
          "max": null,
          "min": null,
          "show": true
        },
        {
          "format": "short",
          "label": "",
          "logBase": 1,
          "max": null,
          "min": null,
          "show": true
        }
      ],
      "yaxis": {
        "align": false,
        "alignLevel": null
      }
    },
    {
      "aliasColors": {
        "KO": "red",
        "KO_TOTAL": "dark-red",
        "KO_Troyen": "dark-red"
      },
      "bars": false,
      "cacheTimeout": null,
      "dashLength": 10,
      "dashes": false,
      "datasource": "Prometheus",
      "description": "",
      "fieldConfig": {
        "defaults": {
          "custom": {},
          "links": []
        },
        "overrides": []
      },
      "fill": 1,
      "fillGradient": 0,
      "gridPos": {
        "h": 8,
        "w": 6,
        "x": 18,
        "y": 5
      },
      "hiddenSeries": false,
      "id": 19,
      "legend": {
        "avg": false,
        "current": false,
        "max": false,
        "min": false,
        "show": true,
        "total": false,
        "values": false
      },
      "lines": true,
      "linewidth": 3,
      "links": [],
      "nullPointMode": "null",
      "options": {
        "alertThreshold": true
      },
      "percentage": false,
      "pluginVersion": "7.2.0",
      "pointradius": 2,
      "points": false,
      "renderer": "flot",
      "seriesOverrides": [],
      "spaceLength": 10,
      "stack": false,
      "steppedLine": true,
      "targets": [
        {
          "expr": "$OK_TOTAL\n",
          "instant": false,
          "interval": "",
          "legendFormat": "OK_TOTAL",
          "refId": "A"
        },
        {
          "expr": "$KO_TOTAL",
          "instant": false,
          "interval": "",
          "legendFormat": "KO_TOTAL",
          "refId": "B"
        }
      ],
      "thresholds": [],
      "timeFrom": null,
      "timeRegions": [],
      "timeShift": null,
      "title": "Nombre d'appels total CUSTOMERS",
      "tooltip": {
        "shared": true,
        "sort": 0,
        "value_type": "individual"
      },
      "type": "graph",
      "xaxis": {
        "buckets": null,
        "mode": "time",
        "name": null,
        "show": true,
        "values": []
      },
      "yaxes": [
        {
          "format": "short",
          "label": "Total Requête",
          "logBase": 1,
          "max": null,
          "min": null,
          "show": true
        },
        {
          "format": "short",
          "label": "",
          "logBase": 1,
          "max": null,
          "min": null,
          "show": true
        }
      ],
      "yaxis": {
        "align": false,
        "alignLevel": null
      }
    },
    {
      "datasource": null,
      "fieldConfig": {
        "defaults": {
          "color": {
            "mode": "thresholds"
          },
          "custom": {},
          "mappings": [
            {
              "from": "",
              "id": 1,
              "operator": "",
              "text": "N/A",
              "to": "",
              "type": 1,
              "value": "-1"
            },
            {
              "from": "",
              "id": 2,
              "operator": "",
              "text": "N/A",
              "to": "",
              "type": 1,
              "value": "null"
            },
            {
              "from": "",
              "id": 3,
              "operator": "",
              "text": "N/A",
              "to": "",
              "type": 1,
              "value": "No data"
            }
          ],
          "max": 100,
          "min": 0,
          "noValue": "no data",
          "thresholds": {
            "mode": "absolute",
            "steps": [
              {
                "color": "green",
                "value": null
              },
              {
                "color": "semi-dark-red",
                "value": 18
              }
            ]
          },
          "unit": "percent"
        },
        "overrides": []
      },
      "gridPos": {
        "h": 8,
        "w": 4,
        "x": 0,
        "y": 13
      },
      "id": 15,
      "options": {
        "orientation": "auto",
        "reduceOptions": {
          "calcs": [
            "last"
          ],
          "fields": "",
          "values": false
        },
        "showThresholdLabels": true,
        "showThresholdMarkers": true
      },
      "pluginVersion": "7.2.0",
      "targets": [
        {
          "expr": "resilience4j_circuitbreaker_failure_rate{application=\"spartiate\",instance=\"localhost:9080\",job=\"spartiate-résilient\",name=\"customers\"}",
          "instant": false,
          "interval": "",
          "legendFormat": "Rate",
          "refId": "A"
        }
      ],
      "timeFrom": null,
      "timeShift": null,
      "title": "Taux d'échec",
      "type": "gauge"
    },
    {
      "cacheTimeout": null,
      "colorBackground": false,
      "colorPostfix": false,
      "colorPrefix": false,
      "colorValue": true,
      "colors": [
        "#C4162A",
        "#FA6400",
        "#37872D"
      ],
      "datasource": "Prometheus",
      "decimals": null,
      "fieldConfig": {
        "defaults": {
          "custom": {}
        },
        "overrides": []
      },
      "format": "none",
      "gauge": {
        "maxValue": 100,
        "minValue": 0,
        "show": false,
        "thresholdLabels": false,
        "thresholdMarkers": true
      },
      "gridPos": {
        "h": 4,
        "w": 5,
        "x": 4,
        "y": 13
      },
      "id": 20,
      "interval": null,
      "links": [],
      "mappingType": 1,
      "mappingTypes": [
        {
          "name": "value to text",
          "value": 1
        },
        {
          "name": "range to text",
          "value": 2
        }
      ],
      "maxDataPoints": 100,
      "nullPointMode": "connected",
      "nullText": null,
      "postfix": "",
      "postfixFontSize": "50%",
      "prefix": "CLOSE:",
      "prefixFontSize": "50%",
      "rangeMaps": [
        {
          "from": "null",
          "text": "N/A",
          "to": "null"
        }
      ],
      "sparkline": {
        "fillColor": "rgba(150, 217, 141, 0.22)",
        "full": false,
        "lineColor": "#37872D",
        "show": true,
        "ymax": null,
        "ymin": null
      },
      "tableColumn": "",
      "targets": [
        {
          "expr": "resilience4j_circuitbreaker_state{application=\"spartiate\",instance=\"localhost:9080\",job=\"spartiate-résilient\",name=\"customers\",state=\"closed\"}",
          "legendFormat": "getCustomer CB",
          "refId": "A"
        }
      ],
      "thresholds": "0,1",
      "timeFrom": null,
      "timeShift": null,
      "title": "Etat disjoncteur service customers",
      "type": "singlestat",
      "valueFontSize": "100%",
      "valueMaps": [
        {
          "op": "=",
          "text": "N/A",
          "value": "null"
        }
      ],
      "valueName": "current"
    },
    {
      "cacheTimeout": null,
      "colorBackground": false,
      "colorPostfix": false,
      "colorPrefix": false,
      "colorValue": true,
      "colors": [
        "#37872D",
        "#FA6400",
        "#C4162A"
      ],
      "datasource": null,
      "fieldConfig": {
        "defaults": {
          "custom": {}
        },
        "overrides": []
      },
      "format": "none",
      "gauge": {
        "maxValue": 100,
        "minValue": 0,
        "show": false,
        "thresholdLabels": false,
        "thresholdMarkers": true
      },
      "gridPos": {
        "h": 4,
        "w": 5,
        "x": 4,
        "y": 17
      },
      "id": 18,
      "interval": null,
      "links": [],
      "mappingType": 1,
      "mappingTypes": [
        {
          "name": "value to text",
          "value": 1
        },
        {
          "name": "range to text",
          "value": 2
        }
      ],
      "maxDataPoints": 100,
      "nullPointMode": "connected",
      "nullText": null,
      "postfix": "",
      "postfixFontSize": "50%",
      "prefix": "OPEN:",
      "prefixFontSize": "50%",
      "rangeMaps": [
        {
          "from": "null",
          "text": "N/A",
          "to": "null"
        }
      ],
      "sparkline": {
        "fillColor": "rgba(150, 217, 141, 0.22)",
        "full": false,
        "lineColor": "#37872D",
        "show": true,
        "ymax": null,
        "ymin": null
      },
      "tableColumn": "",
      "targets": [
        {
          "expr": "resilience4j_circuitbreaker_state{application=\"spartiate\",instance=\"localhost:9080\",job=\"spartiate-résilient\",name=\"customers\",state=\"open\"}",
          "refId": "A"
        }
      ],
      "thresholds": "0,1",
      "timeFrom": null,
      "timeShift": null,
      "title": "Etat disjoncteur service customers",
      "type": "singlestat",
      "valueFontSize": "100%",
      "valueMaps": [
        {
          "op": "=",
          "text": "N/A",
          "value": "null"
        }
      ],
      "valueName": "current"
    }
  ],
  "refresh": "5s",
  "schemaVersion": 26,
  "style": "dark",
  "tags": [
    "resilience",
    "spartiate",
    "CUSTOMERS"
  ],
  "templating": {
    "list": [
      {
        "allValue": null,
        "current": {
          "isNone": true,
          "selected": false,
          "text": "None",
          "value": ""
        },
        "datasource": "Prometheus",
        "definition": "http_server_requests_seconds_count{application=\"spartiate\",exception=\"None\",instance=\"localhost:9080\",job=\"spartiate-résilient\",method=\"GET\",outcome=\"SUCCESS\",status=\"200\",uri=\"/api/v1/spartiate/customers\"}",
        "hide": 0,
        "includeAll": false,
        "label": "OK_R_Customers",
        "multi": false,
        "name": "OK_R_Customers",
        "options": [
          {
            "isNone": true,
            "selected": true,
            "text": "None",
            "value": ""
          }
        ],
        "query": "http_server_requests_seconds_count{application=\"spartiate\",exception=\"None\",instance=\"localhost:9080\",job=\"spartiate-résilient\",method=\"GET\",outcome=\"SUCCESS\",status=\"200\",uri=\"/api/v1/spartiate/customers\"}",
        "refresh": 0,
        "regex": "",
        "skipUrlSync": false,
        "sort": 0,
        "tagValuesQuery": "",
        "tags": [],
        "tagsQuery": "",
        "type": "query",
        "useTags": false
      },
      {
        "allValue": null,
        "current": {
          "isNone": true,
          "selected": false,
          "text": "None",
          "value": ""
        },
        "datasource": "Prometheus",
        "definition": "http_server_requests_seconds_count{application=\"spartiate\",instance=\"localhost:9080\",job=\"spartiate-résilient\",method=\"GET\",outcome=\"SERVER_ERROR\",status=\"500\",uri=\"/api/v1/spartiate/customers\"}",
        "hide": 0,
        "includeAll": false,
        "label": "KO_R_Customers",
        "multi": false,
        "name": "KO_R_Customers",
        "options": [
          {
            "isNone": true,
            "selected": true,
            "text": "None",
            "value": ""
          }
        ],
        "query": "http_server_requests_seconds_count{application=\"spartiate\",instance=\"localhost:9080\",job=\"spartiate-résilient\",method=\"GET\",outcome=\"SERVER_ERROR\",status=\"500\",uri=\"/api/v1/spartiate/customers\"}",
        "refresh": 0,
        "regex": "",
        "skipUrlSync": false,
        "sort": 0,
        "tagValuesQuery": "",
        "tags": [],
        "tagsQuery": "",
        "type": "query",
        "useTags": false
      },
      {
        "allValue": null,
        "current": {
          "isNone": true,
          "selected": false,
          "text": "None",
          "value": ""
        },
        "datasource": "Prometheus",
        "definition": "http_server_requests_seconds_count{application=\"spartiate\",instance=\"localhost:9079\",job=\"spartiate\",method=\"GET\",outcome=\"SUCCESS\",status=\"200\",uri=\"/api/v1/spartiate/customers\"}\t",
        "hide": 0,
        "includeAll": false,
        "label": "OK_Customers",
        "multi": false,
        "name": "OK_Customers",
        "options": [
          {
            "isNone": true,
            "selected": true,
            "text": "None",
            "value": ""
          }
        ],
        "query": "http_server_requests_seconds_count{application=\"spartiate\",instance=\"localhost:9079\",job=\"spartiate\",method=\"GET\",outcome=\"SUCCESS\",status=\"200\",uri=\"/api/v1/spartiate/customers\"}\t",
        "refresh": 0,
        "regex": "",
        "skipUrlSync": false,
        "sort": 0,
        "tagValuesQuery": "",
        "tags": [],
        "tagsQuery": "",
        "type": "query",
        "useTags": false
      },
      {
        "allValue": null,
        "current": {
          "isNone": true,
          "selected": false,
          "text": "None",
          "value": ""
        },
        "datasource": "Prometheus",
        "definition": "http_server_requests_seconds_count{application=\"spartiate\",instance=\"localhost:9079\",job=\"spartiate\",method=\"GET\",outcome=\"SERVER_ERROR\",status=\"500\",uri=\"/api/v1/spartiate/customers\"}\t",
        "hide": 0,
        "includeAll": false,
        "label": "KO_Customers",
        "multi": false,
        "name": "KO_Customers",
        "options": [
          {
            "isNone": true,
            "selected": true,
            "text": "None",
            "value": ""
          }
        ],
        "query": "http_server_requests_seconds_count{application=\"spartiate\",instance=\"localhost:9079\",job=\"spartiate\",method=\"GET\",outcome=\"SERVER_ERROR\",status=\"500\",uri=\"/api/v1/spartiate/customers\"}\t",
        "refresh": 0,
        "regex": "",
        "skipUrlSync": false,
        "sort": 0,
        "tagValuesQuery": "",
        "tags": [],
        "tagsQuery": "",
        "type": "query",
        "useTags": false
      },
      {
        "allValue": null,
        "current": {
          "isNone": true,
          "selected": false,
          "text": "None",
          "value": ""
        },
        "datasource": "Prometheus",
        "definition": "http_server_requests_seconds_count{application=\"troyen\", exception=\"None\", instance=\"localhost:9081\", job=\"troyen\", method=\"GET\", outcome=\"SUCCESS\", status=\"200\", uri=\"/api/v1/troyen/customers\"}",
        "hide": 0,
        "includeAll": false,
        "label": "OK_TOTAL_Customers",
        "multi": false,
        "name": "OK_TOTAL_Customers",
        "options": [
          {
            "isNone": true,
            "selected": true,
            "text": "None",
            "value": ""
          }
        ],
        "query": "http_server_requests_seconds_count{application=\"troyen\", exception=\"None\", instance=\"localhost:9081\", job=\"troyen\", method=\"GET\", outcome=\"SUCCESS\", status=\"200\", uri=\"/api/v1/troyen/customers\"}",
        "refresh": 0,
        "regex": "",
        "skipUrlSync": false,
        "sort": 0,
        "tagValuesQuery": "",
        "tags": [],
        "tagsQuery": "",
        "type": "query",
        "useTags": false
      },
      {
        "allValue": null,
        "current": {
          "isNone": true,
          "selected": false,
          "text": "None",
          "value": ""
        },
        "datasource": "Prometheus",
        "definition": "http_server_requests_seconds_count{application=\"troyen\", instance=\"localhost:9081\", job=\"troyen\", method=\"GET\", outcome=\"SERVER_ERROR\", status=\"500\", uri=\"/api/v1/troyen/customers\"}",
        "hide": 0,
        "includeAll": false,
        "label": "KO_TOTAL_Customers",
        "multi": false,
        "name": "KO_TOTAL_Customers",
        "options": [
          {
            "isNone": true,
            "selected": true,
            "text": "None",
            "value": ""
          }
        ],
        "query": "http_server_requests_seconds_count{application=\"troyen\", instance=\"localhost:9081\", job=\"troyen\", method=\"GET\", outcome=\"SERVER_ERROR\", status=\"500\", uri=\"/api/v1/troyen/customers\"}",
        "refresh": 0,
        "regex": "",
        "skipUrlSync": false,
        "sort": 0,
        "tagValuesQuery": "",
        "tags": [],
        "tagsQuery": "",
        "type": "query",
        "useTags": false
      }
    ]
  },
  "time": {
    "from": "now-5m",
    "to": "now-5s"
  },
  "timepicker": {
    "nowDelay": "1s",
    "refresh_intervals": [
      "5s",
      "10s",
      "30s",
      "1m",
      "5m",
      "15m",
      "30m",
      "1h",
      "2h",
      "1d"
    ]
  },
  "timezone": "",
  "title": "Spartiate R et sans R Customers",
  "uid": "F7DJELNMk",
  "version": 8
}
